CONTAINER vonc_matiereuvw
{
	NAME vonc_matiereuvw;

	INCLUDE Mpreview;
	INCLUDE Xbase;

	GROUP ID_SHADERPROPERTIES
	{
		STRING VONC_MATIEREUVW_SOURCE		{ }
		SHADERLINK VONC_MATIEREUVW_TEXTURE 	{ }
		SEPARATOR { LINE; }
		STATICTEXT VONC_MATIEREUVW_SIGNE	{ }
	}
}
